src/test/svut/dump.vcd
$date
	Fri Sep 18 21:58:19 2020
$end
$version
	Icarus Verilog
$end
$timescale
	1ps
$end
$scope module async_fifo_unit_test $end
$var wire 1 ! wfull $end
$var wire 1 " rempty $end
$var wire 32 # rdata [31:0] $end
$var reg 1 $ rclk $end
$var reg 1 % rinc $end
$var reg 1 & rrst_n $end
$var reg 1 ' wclk $end
$var reg 32 ( wdata [31:0] $end
$var reg 1 ) winc $end
$var reg 1 * wrst_n $end
$var integer 32 + i [31:0] $end
$var integer 32 , svut_critical [31:0] $end
$var integer 32 - svut_error [31:0] $end
$var integer 32 . svut_error_total [31:0] $end
$var integer 32 / svut_nb_test [31:0] $end
$var integer 32 0 svut_nb_test_success [31:0] $end
$var integer 32 1 svut_status [31:0] $end
$var integer 32 2 svut_warning [31:0] $end
$scope module dut $end
$var wire 1 3 RCtrl_clock $end
$var wire 5 4 RCtrl_io_ptrs_wptr [4:0] $end
$var wire 1 5 RCtrl_io_rinc $end
$var wire 1 6 RCtrl_reset $end
$var wire 1 7 WCtrl_clock $end
$var wire 5 8 WCtrl_io_ptrs_rptr [4:0] $end
$var wire 1 9 WCtrl_io_winc $end
$var wire 1 : WCtrl_reset $end
$var wire 4 ; mem_r_rctrl_raddr [3:0] $end
$var wire 1 < mem_r_rctrl_rclk $end
$var wire 32 = mem_w_wbits [31:0] $end
$var wire 4 > mem_w_wctrl_waddr [3:0] $end
$var wire 1 ? mem_w_wctrl_wclk $end
$var wire 1 @ mem_w_wctrl_we $end
$var wire 32 A r_rbits [31:0] $end
$var wire 1 " r_rempty $end
$var wire 1 % r_rinc $end
$var wire 1 $ rclk $end
$var wire 1 B rrst $end
$var wire 32 C w_wbits [31:0] $end
$var wire 1 ! w_wfull $end
$var wire 1 ) w_winc $end
$var wire 1 ' wclk $end
$var wire 1 D wrst $end
$var wire 32 E mem_r_rbits [31:0] $end
$var wire 1 F WCtrl_io_wfull $end
$var wire 5 G WCtrl_io_ptrs_wptr [4:0] $end
$var wire 1 H WCtrl_io_mem_wctrl_we $end
$var wire 1 I WCtrl_io_mem_wctrl_wclk $end
$var wire 4 J WCtrl_io_mem_wctrl_waddr [3:0] $end
$var wire 1 K RCtrl_io_rempty $end
$var wire 5 L RCtrl_io_ptrs_rptr [4:0] $end
$var wire 1 M RCtrl_io_mem_rctrl_rclk $end
$var wire 4 N RCtrl_io_mem_rctrl_raddr [3:0] $end
$scope module RCtrl $end
$var wire 1 O _T $end
$var wire 1 P _T_1 $end
$var wire 1 3 clock $end
$var wire 1 M io_mem_rctrl_rclk $end
$var wire 5 Q io_ptrs_wptr [4:0] $end
$var wire 1 5 io_rinc $end
$var wire 1 6 reset $end
$var wire 5 R rptr_next [4:0] $end
$var wire 5 S rbin_next [4:0] $end
$var wire 1 K io_rempty $end
$var wire 5 T io_ptrs_rptr [4:0] $end
$var wire 4 U io_mem_rctrl_raddr [3:0] $end
$var wire 5 V _GEN_1 [4:0] $end
$var wire 5 W _GEN_0 [4:0] $end
$var reg 5 X rbin_reg [4:0] $end
$var reg 1 K rempty_reg $end
$var reg 5 Y rptr_reg [4:0] $end
$var reg 5 Z wptr_sync_syncFF1 [4:0] $end
$var reg 5 [ wptr_sync_syncFF2 [4:0] $end
$var reg 5 \ wptr_sync_syncFF3 [4:0] $end
$upscope $end
$scope module WCtrl $end
$var wire 1 ] _T $end
$var wire 2 ^ _T_5 [1:0] $end
$var wire 1 7 clock $end
$var wire 1 I io_mem_wctrl_wclk $end
$var wire 1 H io_mem_wctrl_we $end
$var wire 5 _ io_ptrs_rptr [4:0] $end
$var wire 1 9 io_winc $end
$var wire 1 : reset $end
$var wire 1 ` we $end
$var wire 5 a wptr_next [4:0] $end
$var wire 5 b wbin_next [4:0] $end
$var wire 1 F io_wfull $end
$var wire 5 c io_ptrs_wptr [4:0] $end
$var wire 4 d io_mem_wctrl_waddr [3:0] $end
$var wire 1 e _T_9 $end
$var wire 1 f _T_6 $end
$var wire 5 g _GEN_1 [4:0] $end
$var wire 5 h _GEN_0 [4:0] $end
$var reg 5 i rptr_sync_syncFF1 [4:0] $end
$var reg 5 j rptr_sync_syncFF2 [4:0] $end
$var reg 5 k rptr_sync_syncFF3 [4:0] $end
$var reg 5 l wbin_reg [4:0] $end
$var reg 1 F wfull_reg $end
$var reg 5 m wptr_reg [4:0] $end
$upscope $end
$scope module mem $end
$var wire 4 n mem__T_1_addr [3:0] $end
$var wire 32 o mem__T_1_data [31:0] $end
$var wire 4 p mem__T_addr [3:0] $end
$var wire 32 q mem__T_data [31:0] $end
$var wire 1 r mem__T_en $end
$var wire 1 s mem__T_mask $end
$var wire 32 t r_rbits [31:0] $end
$var wire 4 u r_rctrl_raddr [3:0] $end
$var wire 1 < r_rctrl_rclk $end
$var wire 32 v w_wbits [31:0] $end
$var wire 4 w w_wctrl_waddr [3:0] $end
$var wire 1 ? w_wctrl_wclk $end
$var wire 1 @ w_wctrl_we $end
$upscope $end
$upscope $end
$scope task run $end
$var reg 1 x msg $end
$upscope $end
$scope task setup $end
$var reg 1 y msg $end
$upscope $end
$scope task teardown $end
$var reg 1 z msg $end
$upscope $end
$upscope $end
$enddefinitions $end
#0
$dumpvars
xz
1y
0x
b0 w
b0 v
b0 u
bx t
1s
0r
b0 q
b0 p
bx o
b0 n
b0 m
b0 l
b0 k
b0 j
b0 i
b0 h
b0 g
0f
1e
b0 d
b0 c
b0 b
b0 a
0`
b0 _
b11 ^
1]
b0 \
b0 [
b0 Z
b0 Y
b0 X
b0 W
b0 V
b0 U
b0 T
b0 S
b0 R
b0 Q
0P
1O
b0 N
0M
b0 L
0K
b0 J
0I
0H
b0 G
0F
bx E
1D
b0 C
1B
bx A
0@
0?
b0 >
b0 =
0<
b0 ;
1:
09
b0 8
07
16
05
b0 4
03
b0 2
b0 1
b0 0
b0 /
b0 .
b0 -
b0 ,
bx +
0*
0)
b0 (
0'
0&
0%
0$
bx #
0"
0!
$end
#2000
1?
1I
17
1'
#3000
1<
1M
13
1$
#4000
0?
0I
07
0'
#6000
1?
1I
17
1'
0<
0M
03
0$
#8000
0?
0I
07
0'
#9000
1<
1M
13
1$
#10000
1?
1I
17
1'
#12000
0?
0I
07
0'
0<
0M
03
0$
#14000
1?
1I
17
1'
#15000
1<
1M
13
1$
#16000
0?
0I
07
0'
#18000
1?
1I
17
1'
0<
0M
03
0$
#20000
0?
0I
07
0'
#21000
1<
1M
13
1$
#22000
1?
1I
17
1'
#24000
0?
0I
07
0'
0<
0M
03
0$
#26000
1?
1I
17
1'
#27000
1<
1M
13
1$
#28000
0?
0I
07
0'
#30000
1?
1I
17
1'
0<
0M
03
0$
#32000
0?
0I
07
0'
#33000
1<
1M
13
1$
#34000
1?
1I
17
1'
#36000
0?
0I
07
0'
0<
0M
03
0$
#38000
1?
1I
17
1'
#39000
1<
1M
13
1$
#40000
0?
0I
07
0'
#42000
1?
1I
17
1'
0<
0M
03
0$
#44000
0?
0I
07
0'
#45000
1<
1M
13
1$
#46000
1?
1I
17
1'
#48000
0?
0I
07
0'
0<
0M
03
0$
#50000
1?
1I
17
1'
#51000
1<
1M
13
1$
#52000
0?
0I
07
0'
#54000
1?
1I
17
1'
0<
0M
03
0$
#56000
0?
0I
07
0'
#57000
1<
1M
13
1$
#58000
1?
1I
17
1'
#60000
0?
0I
07
0'
0<
0M
03
0$
#62000
1?
1I
17
1'
#63000
1<
1M
13
1$
#64000
0?
0I
07
0'
#66000
1?
1I
17
1'
0<
0M
03
0$
#68000
0?
0I
07
0'
#69000
1<
1M
13
1$
#70000
1?
1I
17
1'
#72000
0?
0I
07
0'
0<
0M
03
0$
#74000
1?
1I
17
1'
#75000
1<
1M
13
1$
#76000
0?
0I
07
0'
#78000
1?
1I
17
1'
0<
0M
03
0$
#80000
0?
0I
07
0'
#81000
1<
1M
13
1$
#82000
1?
1I
17
1'
#84000
0?
0I
07
0'
0<
0M
03
0$
#86000
1?
1I
17
1'
#87000
1<
1M
13
1$
#88000
0?
0I
07
0'
#90000
1?
1I
17
1'
0<
0M
03
0$
#92000
0?
0I
07
0'
#93000
1<
1M
13
1$
#94000
1?
1I
17
1'
#96000
0?
0I
07
0'
0<
0M
03
0$
#98000
1?
1I
17
1'
#99000
1<
1M
13
1$
#100000
0?
0I
07
0'
06
0B
0:
0D
1&
1*
#102000
1?
1I
17
1'
0<
0M
03
0$
#104000
0?
0I
07
0'
#105000
0O
1"
1K
1<
1M
13
1$
#106000
1?
1I
17
1'
#108000
0?
0I
07
0'
0<
0M
03
0$
#110000
1?
1I
17
1'
#111000
1<
1M
13
1$
#112000
0?
0I
07
0'
#114000
1?
1I
17
1'
0<
0M
03
0$
#116000
0?
0I
07
0'
#117000
1<
1M
13
1$
#118000
1?
1I
17
1'
#120000
0?
0I
07
0'
0<
0M
03
0$
#122000
1?
1I
17
1'
#123000
1<
1M
13
1$
#124000
0?
0I
07
0'
#126000
1?
1I
17
1'
0<
0M
03
0$
#128000
0?
0I
07
0'
#129000
1<
1M
13
1$
#130000
1?
1I
17
1'
#132000
0?
0I
07
0'
0<
0M
03
0$
#134000
1?
1I
17
1'
#135000
1<
1M
13
1$
#136000
0?
0I
07
0'
#138000
1?
1I
17
1'
0<
0M
03
0$
#140000
0?
0I
07
0'
#141000
1<
1M
13
1$
#142000
1?
1I
17
1'
#144000
0?
0I
07
0'
0<
0M
03
0$
#146000
1?
1I
17
1'
#147000
1<
1M
13
1$
#148000
0?
0I
07
0'
#150000
0z
b1 /
1?
1I
17
1'
0<
0M
03
0$
#152000
0?
0I
07
0'
#153000
1<
1M
13
1$
#154000
1?
1I
17
1'
#156000
0?
0I
07
0'
0<
0M
03
0$
#158000
1?
1I
17
1'
#159000
1<
1M
13
1$
#160000
0?
0I
07
0'
#162000
1?
1I
17
1'
0<
0M
03
0$
#164000
0?
0I
07
0'
#165000
1<
1M
13
1$
#166000
1?
1I
17
1'
#168000
0?
0I
07
0'
0<
0M
03
0$
#170000
1?
1I
17
1'
#171000
1<
1M
13
1$
#172000
0?
0I
07
0'
#174000
1?
1I
17
1'
0<
0M
03
0$
#176000
0?
0I
07
0'
#177000
1<
1M
13
1$
#178000
1?
1I
17
1'
#180000
0?
0I
07
0'
0<
0M
03
0$
#182000
1?
1I
17
1'
#183000
1<
1M
13
1$
#184000
0?
0I
07
0'
#186000
1?
1I
17
1'
0<
0M
03
0$
#188000
0?
0I
07
0'
#189000
1<
1M
13
1$
#190000
1?
1I
17
1'
#192000
0?
0I
07
0'
0<
0M
03
0$
#194000
1?
1I
17
1'
#195000
1<
1M
13
1$
#196000
0?
0I
07
0'
#198000
1?
1I
17
1'
0<
0M
03
0$
#200000
1O
0"
0K
0?
0I
07
0'
16
1B
1:
1D
0&
0*
b1 0
#201000
1<
1M
13
1$
#202000
1?
1I
17
1'
#204000
0?
0I
07
0'
0<
0M
03
0$
#206000
1?
1I
17
1'
#207000
1<
1M
13
1$
#208000
0?
0I
07
0'
#210000
1?
1I
17
1'
0<
0M
03
0$
#212000
0?
0I
07
0'
#213000
1<
1M
13
1$
#214000
1?
1I
17
1'
#216000
0?
0I
07
0'
0<
0M
03
0$
#218000
1?
1I
17
1'
#219000
1<
1M
13
1$
#220000
0?
0I
07
0'
#222000
1?
1I
17
1'
0<
0M
03
0$
#224000
0?
0I
07
0'
#225000
1<
1M
13
1$
#226000
1?
1I
17
1'
#228000
0?
0I
07
0'
0<
0M
03
0$
#230000
1?
1I
17
1'
#231000
1<
1M
13
1$
#232000
0?
0I
07
0'
#234000
1?
1I
17
1'
0<
0M
03
0$
#236000
0?
0I
07
0'
#237000
1<
1M
13
1$
#238000
1?
1I
17
1'
#240000
0?
0I
07
0'
0<
0M
03
0$
#242000
1?
1I
17
1'
#243000
1<
1M
13
1$
#244000
0?
0I
07
0'
#246000
1?
1I
17
1'
0<
0M
03
0$
#248000
0?
0I
07
0'
#249000
1<
1M
13
1$
#250000
1?
1I
17
1'
#252000
0?
0I
07
0'
0<
0M
03
0$
#254000
1?
1I
17
1'
#255000
1<
1M
13
1$
#256000
0?
0I
07
0'
#258000
1?
1I
17
1'
0<
0M
03
0$
#260000
0?
0I
07
0'
#261000
1<
1M
13
1$
#262000
1?
1I
17
1'
#264000
0?
0I
07
0'
0<
0M
03
0$
#266000
1?
1I
17
1'
#267000
1<
1M
13
1$
#268000
0?
0I
07
0'
#270000
1?
1I
17
1'
0<
0M
03
0$
#272000
0?
0I
07
0'
#273000
1<
1M
13
1$
#274000
1?
1I
17
1'
#276000
0?
0I
07
0'
0<
0M
03
0$
#278000
1?
1I
17
1'
#279000
1<
1M
13
1$
#280000
0?
0I
07
0'
#282000
1?
1I
17
1'
0<
0M
03
0$
#284000
0?
0I
07
0'
#285000
1<
1M
13
1$
#286000
1?
1I
17
1'
#288000
0?
0I
07
0'
0<
0M
03
0$
#290000
1?
1I
17
1'
#291000
1<
1M
13
1$
#292000
0?
0I
07
0'
#294000
1?
1I
17
1'
0<
0M
03
0$
#296000
0?
0I
07
0'
#297000
1<
1M
13
1$
#298000
1?
1I
17
1'
#300000
0?
0I
07
0'
0<
0M
03
0$
06
0B
0:
0D
1&
1*
#302000
1?
1I
17
1'
#303000
0O
1"
1K
1<
1M
13
1$
#304000
0?
0I
07
0'
#306000
1?
1I
17
1'
0<
0M
03
0$
#308000
0?
0I
07
0'
#309000
1<
1M
13
1$
#310000
1?
1I
17
1'
#312000
0?
0I
07
0'
0<
0M
03
0$
#314000
1?
1I
17
1'
#315000
1<
1M
13
1$
#316000
0?
0I
07
0'
#318000
1?
1I
17
1'
0<
0M
03
0$
#320000
0?
0I
07
0'
#321000
1<
1M
13
1$
#322000
1?
1I
17
1'
#324000
0?
0I
07
0'
0<
0M
03
0$
#326000
1?
1I
17
1'
#327000
1<
1M
13
1$
#328000
0?
0I
07
0'
#330000
1?
1I
17
1'
0<
0M
03
0$
#332000
0?
0I
07
0'
#333000
1<
1M
13
1$
#334000
1?
1I
17
1'
#336000
0?
0I
07
0'
0<
0M
03
0$
#338000
1?
1I
17
1'
#339000
1<
1M
13
1$
#340000
0?
0I
07
0'
#342000
1?
1I
17
1'
0<
0M
03
0$
#344000
0?
0I
07
0'
#345000
1<
1M
13
1$
#346000
1?
1I
17
1'
#348000
0?
0I
07
0'
0<
0M
03
0$
#350000
b10 /
1?
1I
17
1'
#351000
1<
1M
13
1$
#352000
0?
0I
07
0'
#354000
0e
b1 a
b1 b
b1 h
1`
1r
1@
1H
b1010 q
b1010 =
b1010 v
b1010 (
b1010 C
19
1)
1?
1I
17
1'
0<
0M
03
0$
#356000
0?
0I
07
0'
#357000
1<
1M
13
1$
#358000
b1 p
b1 >
b1 w
b1 J
b1 d
b1010 #
b1010 A
b1010 E
b1010 t
b1010 o
b1 4
b1 Q
b1 G
b1 c
b1 m
b1 l
0e
b1 a
b1 b
b0 h
0`
0r
0@
0H
09
0)
1?
1I
17
1'
#360000
0?
0I
07
0'
0<
0M
03
0$
#362000
1?
1I
17
1'
#363000
b1 Z
1<
1M
13
1$
#364000
0?
0I
07
0'
#366000
1?
1I
17
1'
0<
0M
03
0$
#368000
0?
0I
07
0'
#369000
b1 [
1<
1M
13
1$
#370000
1?
1I
17
1'
#372000
0?
0I
07
0'
0<
0M
03
0$
#374000
1?
1I
17
1'
#375000
b1 \
1<
1M
13
1$
#376000
0?
0I
07
0'
#378000
1?
1I
17
1'
0<
0M
03
0$
#380000
0?
0I
07
0'
#381000
b1 R
b1 S
b1 W
1P
1O
15
1%
0"
0K
1<
1M
13
1$
#382000
1?
1I
17
1'
#384000
0?
0I
07
0'
0<
0M
03
0$
#386000
1?
1I
17
1'
#387000
b0 W
0P
b0 V
b1 R
bx #
bx A
bx E
bx t
bx o
b1 n
b1 ;
b1 u
b1 N
b1 U
0O
b1 S
b1 X
b1 8
b1 _
b1 L
b1 T
b1 Y
1"
1K
1<
1M
13
1$
#388000
0?
0I
07
0'
#390000
b1 i
1?
1I
17
1'
0<
0M
03
0$
#392000
0?
0I
07
0'
#393000
1<
1M
13
1$
#394000
b1 j
1?
1I
17
1'
#396000
0?
0I
07
0'
0<
0M
03
0$
#398000
1e
b1 k
1?
1I
17
1'
#399000
1<
1M
13
1$
#400000
0?
0I
07
0'
#402000
1?
1I
17
1'
0<
0M
03
0$
#404000
0?
0I
07
0'
#405000
1<
1M
13
1$
#406000
1?
1I
17
1'
#408000
0?
0I
07
0'
0<
0M
03
0$
#410000
1?
1I
17
1'
#411000
1<
1M
13
1$
#412000
0?
0I
07
0'
#414000
1?
1I
17
1'
0<
0M
03
0$
#416000
0?
0I
07
0'
#417000
1<
1M
13
1$
#418000
1?
1I
17
1'
#420000
0?
0I
07
0'
0<
0M
03
0$
#422000
1?
1I
17
1'
#423000
1<
1M
13
1$
#424000
0?
0I
07
0'
#426000
1?
1I
17
1'
0<
0M
03
0$
#428000
0?
0I
07
0'
#429000
1<
1M
13
1$
#430000
1?
1I
17
1'
#432000
0?
0I
07
0'
0<
0M
03
0$
#434000
b0 R
b1010 #
b1010 A
b1010 E
b1010 t
b1010 o
b0 n
b0 ;
b0 u
b0 N
b0 U
1O
1e
b0 a
b0 p
b0 >
b0 w
b0 J
b0 d
b0 Z
b0 [
b0 \
b0 S
b0 X
b0 8
b0 _
b0 L
b0 T
b0 Y
0"
0K
b0 i
b0 j
b0 k
b0 b
b0 l
b0 4
b0 Q
b0 G
b0 c
b0 m
1?
1I
17
1'
16
1B
1:
1D
05
0%
0&
b0 q
b0 =
b0 v
b0 (
b0 C
0*
b10 0
